// Jest Snapshot v1, https://goo.gl/fbAQLP

exports[`FireflowNavBar renders correctly 1`] = `
<View
  style={
    Object {
      "backgroundColor": "#FF5B5B",
      "elevation": 20,
      "height": "100%",
      "paddingBottom": 30,
      "paddingTop": 30,
      "textAlign": "center",
      "width": "6%",
    }
  }
>
  <View
    style={
      Object {
        "alignItems": "center",
        "flexDirection": "column",
        "height": "100%",
        "justifyContent": "space-between",
      }
    }
  >
    <View
      accessible={true}
      collapsable={false}
      focusable={true}
      onClick={[Function]}
      onResponderGrant={[Function]}
      onResponderMove={[Function]}
      onResponderRelease={[Function]}
      onResponderTerminate={[Function]}
      onResponderTerminationRequest={[Function]}
      onStartShouldSetResponder={[Function]}
      style={
        Object {
          "opacity": 1,
        }
      }
      testID="open"
    >
      <Image
        source={1}
        style={
          Object {
            "height": 30,
            "resizeMode": "stretch",
            "width": 40,
          }
        }
      />
    </View>
    <View
      accessible={true}
      collapsable={false}
      focusable={true}
      onClick={[Function]}
      onResponderGrant={[Function]}
      onResponderMove={[Function]}
      onResponderRelease={[Function]}
      onResponderTerminate={[Function]}
      onResponderTerminationRequest={[Function]}
      onStartShouldSetResponder={[Function]}
      style={
        Object {
          "alignItems": "center",
          "flexDirection": "row",
          "justifyContent": "space-between",
          "opacity": 1,
          "width": "100%",
        }
      }
      testID="toHome"
    >
      <View
        style={
          Object {
            "backgroundColor": "#FFFFFF",
            "borderBottomRightRadius": 90,
            "borderTopRightRadius": 90,
            "height": "80%",
            "position": "absolute",
            "width": "5%",
          }
        }
      />
      <View
        style={
          Object {
            "alignItems": "center",
            "width": "100%",
          }
        }
      >
        <Image
          source={1}
          style={
            Object {
              "height": 50,
              "width": 50,
            }
          }
        />
      </View>
    </View>
    <View
      accessible={true}
      collapsable={false}
      focusable={true}
      onClick={[Function]}
      onResponderGrant={[Function]}
      onResponderMove={[Function]}
      onResponderRelease={[Function]}
      onResponderTerminate={[Function]}
      onResponderTerminationRequest={[Function]}
      onStartShouldSetResponder={[Function]}
      style={
        Object {
          "alignItems": "center",
          "flexDirection": "row",
          "justifyContent": "space-between",
          "opacity": 1,
          "width": "100%",
        }
      }
      testID="toCommunication"
    >
      <View
        style={
          Object {
            "alignItems": "center",
            "width": "100%",
          }
        }
      >
        <Image
          source={1}
          style={
            Object {
              "height": 50,
              "width": 50,
            }
          }
        />
      </View>
    </View>
    <View
      accessible={true}
      collapsable={false}
      focusable={true}
      onClick={[Function]}
      onResponderGrant={[Function]}
      onResponderMove={[Function]}
      onResponderRelease={[Function]}
      onResponderTerminate={[Function]}
      onResponderTerminationRequest={[Function]}
      onStartShouldSetResponder={[Function]}
      style={
        Object {
          "alignItems": "center",
          "flexDirection": "row",
          "justifyContent": "space-between",
          "opacity": 1,
          "width": "100%",
        }
      }
      testID="toStatus"
    >
      <View
        style={
          Object {
            "alignItems": "center",
            "width": "100%",
          }
        }
      >
        <Image
          source={1}
          style={
            Object {
              "height": 50,
              "width": 50,
            }
          }
        />
      </View>
    </View>
    <View
      accessible={true}
      collapsable={false}
      focusable={true}
      onClick={[Function]}
      onResponderGrant={[Function]}
      onResponderMove={[Function]}
      onResponderRelease={[Function]}
      onResponderTerminate={[Function]}
      onResponderTerminationRequest={[Function]}
      onStartShouldSetResponder={[Function]}
      style={
        Object {
          "alignItems": "center",
          "flexDirection": "row",
          "justifyContent": "space-between",
          "opacity": 1,
          "width": "100%",
        }
      }
      testID="toAlert"
    >
      <View
        style={
          Object {
            "alignItems": "center",
            "width": "100%",
          }
        }
      >
        <Image
          source={1}
          style={
            Object {
              "height": 50,
              "width": 50,
            }
          }
        />
      </View>
    </View>
    <View
      accessible={true}
      collapsable={false}
      focusable={true}
      onClick={[Function]}
      onResponderGrant={[Function]}
      onResponderMove={[Function]}
      onResponderRelease={[Function]}
      onResponderTerminate={[Function]}
      onResponderTerminationRequest={[Function]}
      onStartShouldSetResponder={[Function]}
      style={
        Object {
          "alignItems": "center",
          "flexDirection": "row",
          "justifyContent": "space-between",
          "opacity": 1,
          "width": "100%",
        }
      }
      testID="toInfo"
    >
      <View
        style={
          Object {
            "alignItems": "center",
            "width": "100%",
          }
        }
      >
        <Image
          source={1}
          style={
            Object {
              "height": 45,
              "width": 45,
            }
          }
        />
      </View>
    </View>
    <View
      accessible={true}
      collapsable={false}
      focusable={true}
      onClick={[Function]}
      onResponderGrant={[Function]}
      onResponderMove={[Function]}
      onResponderRelease={[Function]}
      onResponderTerminate={[Function]}
      onResponderTerminationRequest={[Function]}
      onStartShouldSetResponder={[Function]}
      style={
        Object {
          "opacity": 1,
        }
      }
      testID="toProfile"
    >
      <View
        style={
          Array [
            Object {
              "backgroundColor": "#6200ee",
              "borderRadius": 25,
              "height": 50,
              "width": 50,
            },
            undefined,
          ]
        }
      >
        <Image
          source={1}
          style={
            Object {
              "borderRadius": 25,
              "height": 50,
              "width": 50,
            }
          }
        />
      </View>
    </View>
  </View>
</View>
`;
