// Jest Snapshot v1, https://goo.gl/fbAQLP

exports[`ImageInfo renders correctly 1`] = `
<View
  style={
    Object {
      "alignItems": "center",
      "justifyContent": "center",
    }
  }
>
  <Text
    style={
      Array [
        Object {
          "fontFamily": "Poppins_600SemiBold",
          "fontSize": 30,
        },
        Object {
          "fontSize": 40,
          "marginBottom": 20,
          "textAlign": "center",
        },
      ]
    }
  >
    Détails de la photo
  </Text>
  <View
    style={
      Object {
        "flexDirection": "row",
        "height": "75%",
      }
    }
  >
    <Image
      source={
        Object {
          "uri": "url",
        }
      }
      style={
        Object {
          "height": "100%",
          "marginRight": 20,
          "width": "50%",
        }
      }
    />
    <View>
      <Text
        style={
          Array [
            Object {
              "fontFamily": "Poppins_600SemiBold",
              "fontSize": 30,
            },
            Object {
              "textAlign": "left",
            },
          ]
        }
      >
        Nom
      </Text>
      <Text
        style={
          Object {
            "fontFamily": "Poppins_400Regular",
            "fontSize": 25,
            "width": 350,
          }
        }
      >
        name
      </Text>
      <Text
        style={
          Array [
            Object {
              "fontFamily": "Poppins_600SemiBold",
              "fontSize": 30,
            },
            Object {
              "marginTop": 20,
              "textAlign": "left",
            },
          ]
        }
      >
        Description
      </Text>
      <Text
        style={
          Array [
            Object {
              "fontFamily": "Poppins_400Regular",
              "fontSize": 25,
              "width": 350,
            },
            Object {
              "fontStyle": "normal",
            },
          ]
        }
      >
        description
      </Text>
    </View>
  </View>
</View>
`;
